Dispersal with random movement
…
load("track_all.rdata")

track_all = track_all %>%
  select(name = MovDataID, x=X, y=Y, timestamp=Fixtime) %>%
  mutate_if(is.factor, as.character) %>%
  mutate(timestamp = ymd_hms(timestamp)) %>%
  group_by(name) %>%
  arrange(timestamp) %>%
  distinct()

track_all %>%
  count(name)

## # A tibble: 57 x 2
## # Groups:   name [57]
##    name             n
##    <chr>        <int>
##  1 Abu          17864
##  2 Amelia       11217
##  3 Angelia       6735
##  4 Annabelle_ww 10778
##  5 Beti         10352
##  6 Boniface     16582
##  7 BraBrou      17811
##  8 David        10301
##  9 Dedi         10199
## 10 Doudou       10483
## #  with 47 more rows
…
